{"failedCount":0,"prefixedPath":"classpath:com\/tests\/configdemo.feature","packageQualifiedName":"com.tests.configdemo","loopIndex":-1,"relativePath":"com\/tests\/configdemo.feature","scenarioResults":[{"sectionIndex":0,"stepResults":[{"result":{"nanos":1208300,"startTime":1703588531828,"endTime":1703588531829,"millis":1.2083,"status":"passed"},"step":{"background":true,"line":4,"prefix":"*","index":0,"text":"url baseURL"}},{"result":{"nanos":47809000,"startTime":1703588531832,"endTime":1703588531880,"millis":47.809,"status":"passed"},"step":{"line":7,"prefix":"Given","index":0,"text":"print name"},"stepLog":"16:32:11.877 [print] REVATHY SHARMA \n"}],"executorName":"main","line":6,"name":"config demo 1","description":"","durationMillis":49.0173,"startTime":1703588531723,"failed":false,"refId":"[1:6]","endTime":1703588531879,"exampleIndex":-1},{"sectionIndex":1,"stepResults":[{"result":{"nanos":336500,"startTime":1703588531896,"endTime":1703588531896,"millis":0.3365,"status":"passed"},"step":{"background":true,"line":4,"prefix":"*","index":0,"text":"url baseURL"}},{"result":{"nanos":675400,"startTime":1703588531896,"endTime":1703588531897,"millis":0.6754,"status":"passed"},"step":{"line":10,"prefix":"Given","index":0,"text":"path \"users?page=2\""}},{"result":{"nanos":1147487800,"startTime":1703588531897,"endTime":1703588533044,"millis":1147.4878,"status":"passed"},"step":{"line":11,"prefix":"When","index":1,"text":"method GET"},"stepLog":"16:32:12.195 request:\n1 > GET https:\/\/reqres.in\/api\/users%3Fpage=2\n1 > Host: reqres.in\n1 > Connection: Keep-Alive\n1 > User-Agent: Apache-HttpClient\/4.5.14 (Java\/16.0.1)\n1 > Accept-Encoding: gzip,deflate\n\n\n16:32:13.022 response time in milliseconds: 820\n1 < 200\n1 < Date: Tue, 26 Dec 2023 11:02:45 GMT\n1 < Content-Type: application\/json; charset=utf-8\n1 < Transfer-Encoding: chunked\n1 < Connection: keep-alive\n1 < Report-To: {\"group\":\"heroku-nel\",\"max_age\":3600,\"endpoints\":[{\"url\":\"https:\/\/nel.heroku.com\/reports?ts=1703522616&sid=c4c9725f-1ab0-44d8-820f-430df2718e11&s=Z314AY68mtBIsMd1S9hu0z18vDAPzfqmV49MoevGtPA%3D\"}]}\n1 < Reporting-Endpoints: heroku-nel=https:\/\/nel.heroku.com\/reports?ts=1703522616&sid=c4c9725f-1ab0-44d8-820f-430df2718e11&s=Z314AY68mtBIsMd1S9hu0z18vDAPzfqmV49MoevGtPA%3D\n1 < Nel: {\"report_to\":\"heroku-nel\",\"max_age\":3600,\"success_fraction\":0.005,\"failure_fraction\":0.05,\"response_headers\":[\"Via\"]}\n1 < X-Powered-By: Express\n1 < Access-Control-Allow-Origin: *\n1 < Etag: W\/\"2c1-N6Rqerxquq2kgQhL51EiSg4x0R8\"\n1 < Via: 1.1 vegur\n1 < Cache-Control: max-age=14400\n1 < CF-Cache-Status: REVALIDATED\n1 < Vary: Accept-Encoding\n1 < Server: cloudflare\n1 < CF-RAY: 83b8d550ead831dc-BOM\n{\"page\":1,\"per_page\":6,\"total\":12,\"total_pages\":2,\"data\":[{\"id\":1,\"name\":\"cerulean\",\"year\":2000,\"color\":\"#98B2D1\",\"pantone_value\":\"15-4020\"},{\"id\":2,\"name\":\"fuchsia rose\",\"year\":2001,\"color\":\"#C74375\",\"pantone_value\":\"17-2031\"},{\"id\":3,\"name\":\"true red\",\"year\":2002,\"color\":\"#BF1932\",\"pantone_value\":\"19-1664\"},{\"id\":4,\"name\":\"aqua sky\",\"year\":2003,\"color\":\"#7BC4C4\",\"pantone_value\":\"14-4811\"},{\"id\":5,\"name\":\"tigerlily\",\"year\":2004,\"color\":\"#E2583E\",\"pantone_value\":\"17-1456\"},{\"id\":6,\"name\":\"blue turquoise\",\"year\":2005,\"color\":\"#53B0AE\",\"pantone_value\":\"15-5217\"}],\"support\":{\"url\":\"https:\/\/reqres.in\/#support-heading\",\"text\":\"To keep ReqRes free, contributions towards server costs are appreciated!\"}}\n\n"},{"result":{"nanos":16400,"startTime":1703588533046,"endTime":1703588533046,"millis":0.0164,"status":"passed"},"step":{"line":12,"prefix":"Then","index":2,"text":"status 200"}}],"executorName":"main","line":9,"name":"Get API Request","description":"","durationMillis":1148.5161,"startTime":1703588531895,"failed":false,"refId":"[2:9]","endTime":1703588533046,"exampleIndex":-1}],"callDepth":0,"name":"config demo","description":"","resultDate":"2023-12-26 04:32:13 PM","durationMillis":1197.5334,"passedCount":2}