{"failedCount":0,"prefixedPath":"classpath:com\/tests\/newtest.feature","packageQualifiedName":"com.tests.newtest","loopIndex":-1,"relativePath":"com\/tests\/newtest.feature","scenarioResults":[{"sectionIndex":0,"stepResults":[{"result":{"nanos":53717300,"startTime":1703570335938,"endTime":1703570335992,"millis":53.7173,"status":"passed"},"step":{"background":true,"line":4,"prefix":"*","index":0,"text":"url \"https:\/\/reqres.in\/api\""}},{"result":{"nanos":99661200,"startTime":1703570335994,"endTime":1703570336094,"millis":99.6612,"status":"passed"},"step":{"background":true,"line":5,"prefix":"*","index":1,"text":"def expectedOutcome = read(\"response.json\")"}},{"result":{"nanos":676700,"startTime":1703570336094,"endTime":1703570336095,"millis":0.6767,"status":"passed"},"step":{"line":8,"prefix":"Given","index":0,"text":"url \"https:\/\/reqres.in\/api\/users?page=2\""}},{"result":{"nanos":688477300,"startTime":1703570336095,"endTime":1703570336783,"millis":688.4773,"status":"passed"},"step":{"line":9,"prefix":"When","index":1,"text":"method GET"},"stepLog":"11:28:56.334 request:\n1 > GET https:\/\/reqres.in\/api\/users?page=2\n1 > Host: reqres.in\n1 > Connection: Keep-Alive\n1 > User-Agent: Apache-HttpClient\/4.5.14 (Java\/16.0.1)\n1 > Accept-Encoding: gzip,deflate\n\n\n11:28:56.777 response time in milliseconds: 437\n1 < 200\n1 < Date: Tue, 26 Dec 2023 05:59:28 GMT\n1 < Content-Type: application\/json; charset=utf-8\n1 < Transfer-Encoding: chunked\n1 < Connection: keep-alive\n1 < Report-To: {\"group\":\"heroku-nel\",\"max_age\":3600,\"endpoints\":[{\"url\":\"https:\/\/nel.heroku.com\/reports?ts=1703384241&sid=c4c9725f-1ab0-44d8-820f-430df2718e11&s=Khl0bvYZuN6muqjDqsZhnE%2FH4jRBRl57yuRMNXVEGRA%3D\"}]}\n1 < Reporting-Endpoints: heroku-nel=https:\/\/nel.heroku.com\/reports?ts=1703384241&sid=c4c9725f-1ab0-44d8-820f-430df2718e11&s=Khl0bvYZuN6muqjDqsZhnE%2FH4jRBRl57yuRMNXVEGRA%3D\n1 < Nel: {\"report_to\":\"heroku-nel\",\"max_age\":3600,\"success_fraction\":0.005,\"failure_fraction\":0.05,\"response_headers\":[\"Via\"]}\n1 < X-Powered-By: Express\n1 < Access-Control-Allow-Origin: *\n1 < Etag: W\/\"406-ut0vzoCuidvyMf8arZpMpJ6ZRDw\"\n1 < Via: 1.1 vegur\n1 < Cache-Control: max-age=14400\n1 < CF-Cache-Status: HIT\n1 < Age: 5489\n1 < Vary: Accept-Encoding\n1 < Server: cloudflare\n1 < CF-RAY: 83b71914783831d0-BOM\n{\"page\":2,\"per_page\":6,\"total\":12,\"total_pages\":2,\"data\":[{\"id\":7,\"email\":\"michael.lawson@reqres.in\",\"first_name\":\"Michael\",\"last_name\":\"Lawson\",\"avatar\":\"https:\/\/reqres.in\/img\/faces\/7-image.jpg\"},{\"id\":8,\"email\":\"lindsay.ferguson@reqres.in\",\"first_name\":\"Lindsay\",\"last_name\":\"Ferguson\",\"avatar\":\"https:\/\/reqres.in\/img\/faces\/8-image.jpg\"},{\"id\":9,\"email\":\"tobias.funke@reqres.in\",\"first_name\":\"Tobias\",\"last_name\":\"Funke\",\"avatar\":\"https:\/\/reqres.in\/img\/faces\/9-image.jpg\"},{\"id\":10,\"email\":\"byron.fields@reqres.in\",\"first_name\":\"Byron\",\"last_name\":\"Fields\",\"avatar\":\"https:\/\/reqres.in\/img\/faces\/10-image.jpg\"},{\"id\":11,\"email\":\"george.edwards@reqres.in\",\"first_name\":\"George\",\"last_name\":\"Edwards\",\"avatar\":\"https:\/\/reqres.in\/img\/faces\/11-image.jpg\"},{\"id\":12,\"email\":\"rachel.howell@reqres.in\",\"first_name\":\"Rachel\",\"last_name\":\"Howell\",\"avatar\":\"https:\/\/reqres.in\/img\/faces\/12-image.jpg\"}],\"support\":{\"url\":\"https:\/\/reqres.in\/#support-heading\",\"text\":\"To keep ReqRes free, contributions towards server costs are appreciated!\"}}\n\n"},{"result":{"nanos":25600,"startTime":1703570336783,"endTime":1703570336783,"millis":0.0256,"status":"passed"},"step":{"line":10,"prefix":"Then","index":2,"text":"status 200"}}],"executorName":"main","line":7,"name":"Get API Request","description":"","durationMillis":842.5581,"startTime":1703570335930,"failed":false,"refId":"[1:7]","endTime":1703570336783,"exampleIndex":-1},{"sectionIndex":1,"stepResults":[{"result":{"nanos":831200,"startTime":1703570336799,"endTime":1703570336800,"millis":0.8312,"status":"passed"},"step":{"background":true,"line":4,"prefix":"*","index":0,"text":"url \"https:\/\/reqres.in\/api\""}},{"result":{"nanos":2266700,"startTime":1703570336801,"endTime":1703570336803,"millis":2.2667,"status":"passed"},"step":{"background":true,"line":5,"prefix":"*","index":1,"text":"def expectedOutcome = read(\"response.json\")"}},{"result":{"nanos":885600,"startTime":1703570336803,"endTime":1703570336804,"millis":0.8856,"status":"passed"},"step":{"line":14,"prefix":"Given","index":0,"text":"url \"https:\/\/reqres.in\/api\/users\""}},{"result":{"nanos":494700,"startTime":1703570336805,"endTime":1703570336805,"millis":0.4947,"status":"passed"},"step":{"line":15,"prefix":"And","index":1,"text":"request {\"name\": \"Revathy C\", \"job\": \"Software Tester\"}"}},{"result":{"nanos":847792200,"startTime":1703570336805,"endTime":1703570337653,"millis":847.7922,"status":"passed"},"step":{"line":16,"prefix":"When","index":2,"text":"method POST"},"stepLog":"11:28:56.863 request:\n1 > POST https:\/\/reqres.in\/api\/users\n1 > Content-Type: application\/json; charset=UTF-8\n1 > Content-Length: 44\n1 > Host: reqres.in\n1 > Connection: Keep-Alive\n1 > User-Agent: Apache-HttpClient\/4.5.14 (Java\/16.0.1)\n1 > Accept-Encoding: gzip,deflate\n{\"name\":\"Revathy C\",\"job\":\"Software Tester\"}\n\n11:28:57.651 response time in milliseconds: 786\n1 < 201\n1 < Date: Tue, 26 Dec 2023 05:59:29 GMT\n1 < Content-Type: application\/json; charset=utf-8\n1 < Content-Length: 94\n1 < Connection: keep-alive\n1 < Report-To: {\"group\":\"heroku-nel\",\"max_age\":3600,\"endpoints\":[{\"url\":\"https:\/\/nel.heroku.com\/reports?ts=1703570369&sid=c4c9725f-1ab0-44d8-820f-430df2718e11&s=ok4sybG2UJ93WSwoOrxqrM%2BkOEuHCd0mvc1vHZC%2BZN8%3D\"}]}\n1 < Reporting-Endpoints: heroku-nel=https:\/\/nel.heroku.com\/reports?ts=1703570369&sid=c4c9725f-1ab0-44d8-820f-430df2718e11&s=ok4sybG2UJ93WSwoOrxqrM%2BkOEuHCd0mvc1vHZC%2BZN8%3D\n1 < Nel: {\"report_to\":\"heroku-nel\",\"max_age\":3600,\"success_fraction\":0.005,\"failure_fraction\":0.05,\"response_headers\":[\"Via\"]}\n1 < X-Powered-By: Express\n1 < Access-Control-Allow-Origin: *\n1 < Etag: W\/\"5e-oGtAKm8lGZA1KwCTmrn47DIn\/hQ\"\n1 < Via: 1.1 vegur\n1 < CF-Cache-Status: DYNAMIC\n1 < Server: cloudflare\n1 < CF-RAY: 83b719178a715fc0-SIN\n{\"name\":\"Revathy C\",\"job\":\"Software Tester\",\"id\":\"893\",\"createdAt\":\"2023-12-26T05:59:29.486Z\"}\n\n"},{"result":{"nanos":10600,"startTime":1703570337654,"endTime":1703570337654,"millis":0.0106,"status":"passed"},"step":{"line":17,"prefix":"Then","index":3,"text":"status 201"}},{"result":{"nanos":14145700,"startTime":1703570337654,"endTime":1703570337668,"millis":14.1457,"status":"passed"},"step":{"line":18,"prefix":"And","index":4,"text":"print \"response is:\", response"},"stepLog":"11:28:57.666 [print] response is: {\n  \"name\": \"Revathy C\",\n  \"job\": \"Software Tester\",\n  \"id\": \"893\",\n  \"createdAt\": \"2023-12-26T05:59:29.486Z\"\n}\n \n"}],"executorName":"main","line":13,"name":"POST Request 1","description":"","durationMillis":866.4267,"startTime":1703570336799,"failed":false,"refId":"[2:13]","endTime":1703570337668,"exampleIndex":-1},{"sectionIndex":2,"stepResults":[{"result":{"nanos":296200,"startTime":1703570337677,"endTime":1703570337677,"millis":0.2962,"status":"passed"},"step":{"background":true,"line":4,"prefix":"*","index":0,"text":"url \"https:\/\/reqres.in\/api\""}},{"result":{"nanos":1268600,"startTime":1703570337677,"endTime":1703570337678,"millis":1.2686,"status":"passed"},"step":{"background":true,"line":5,"prefix":"*","index":1,"text":"def expectedOutcome = read(\"response.json\")"}},{"result":{"nanos":401000,"startTime":1703570337679,"endTime":1703570337679,"millis":0.401,"status":"passed"},"step":{"line":22,"prefix":"Given","index":0,"text":"path \"\/users\""}},{"result":{"nanos":197300,"startTime":1703570337679,"endTime":1703570337679,"millis":0.1973,"status":"passed"},"step":{"line":23,"prefix":"And","index":1,"text":"request {\"name\": \"Revathy\", \"job\": \" Tester\"}"}},{"result":{"nanos":687026100,"startTime":1703570337679,"endTime":1703570338366,"millis":687.0261,"status":"passed"},"step":{"line":24,"prefix":"When","index":2,"text":"method POST"},"stepLog":"11:28:57.681 request:\n1 > POST https:\/\/reqres.in\/api\/users\n1 > Content-Type: application\/json; charset=UTF-8\n1 > Content-Length: 34\n1 > Host: reqres.in\n1 > Connection: Keep-Alive\n1 > User-Agent: Apache-HttpClient\/4.5.14 (Java\/16.0.1)\n1 > Accept-Encoding: gzip,deflate\n{\"name\":\"Revathy\",\"job\":\" Tester\"}\n\n11:28:58.366 response time in milliseconds: 683\n1 < 201\n1 < Date: Tue, 26 Dec 2023 05:59:30 GMT\n1 < Content-Type: application\/json; charset=utf-8\n1 < Content-Length: 84\n1 < Connection: keep-alive\n1 < Report-To: {\"group\":\"heroku-nel\",\"max_age\":3600,\"endpoints\":[{\"url\":\"https:\/\/nel.heroku.com\/reports?ts=1703570370&sid=c4c9725f-1ab0-44d8-820f-430df2718e11&s=O8Ky4%2BvrdcKoWdpdsU5QoQhOFnLtvWJpx%2BDs3mlFf7g%3D\"}]}\n1 < Reporting-Endpoints: heroku-nel=https:\/\/nel.heroku.com\/reports?ts=1703570370&sid=c4c9725f-1ab0-44d8-820f-430df2718e11&s=O8Ky4%2BvrdcKoWdpdsU5QoQhOFnLtvWJpx%2BDs3mlFf7g%3D\n1 < Nel: {\"report_to\":\"heroku-nel\",\"max_age\":3600,\"success_fraction\":0.005,\"failure_fraction\":0.05,\"response_headers\":[\"Via\"]}\n1 < X-Powered-By: Express\n1 < Access-Control-Allow-Origin: *\n1 < Etag: W\/\"54-Z+R9j6tz+6QZ3RiFrhfXSCgBcXg\"\n1 < Via: 1.1 vegur\n1 < CF-Cache-Status: DYNAMIC\n1 < Server: cloudflare\n1 < CF-RAY: 83b7191bc8f331ed-BOM\n{\"name\":\"Revathy\",\"job\":\" Tester\",\"id\":\"136\",\"createdAt\":\"2023-12-26T05:59:30.192Z\"}\n\n"},{"result":{"nanos":9100,"startTime":1703570338367,"endTime":1703570338367,"millis":0.0091,"status":"passed"},"step":{"line":25,"prefix":"Then","index":3,"text":"status 201"}},{"result":{"nanos":650600,"startTime":1703570338367,"endTime":1703570338368,"millis":0.6506,"status":"passed"},"step":{"line":26,"prefix":"And","index":4,"text":"print \"response is:\", response"},"stepLog":"11:28:58.367 [print] response is: {\n  \"name\": \"Revathy\",\n  \"job\": \" Tester\",\n  \"id\": \"136\",\n  \"createdAt\": \"2023-12-26T05:59:30.192Z\"\n}\n \n"}],"executorName":"main","line":21,"name":"POST Request 2","description":"","durationMillis":689.8489,"startTime":1703570337677,"failed":false,"refId":"[3:21]","endTime":1703570338368,"exampleIndex":-1},{"sectionIndex":3,"stepResults":[{"result":{"nanos":267500,"startTime":1703570338375,"endTime":1703570338375,"millis":0.2675,"status":"passed"},"step":{"background":true,"line":4,"prefix":"*","index":0,"text":"url \"https:\/\/reqres.in\/api\""}},{"result":{"nanos":943700,"startTime":1703570338375,"endTime":1703570338376,"millis":0.9437,"status":"passed"},"step":{"background":true,"line":5,"prefix":"*","index":1,"text":"def expectedOutcome = read(\"response.json\")"}},{"result":{"nanos":89800,"startTime":1703570338376,"endTime":1703570338376,"millis":0.0898,"status":"passed"},"step":{"line":30,"prefix":"Given","index":0,"text":"path \"\/users\""}},{"result":{"nanos":231200,"startTime":1703570338377,"endTime":1703570338377,"millis":0.2312,"status":"passed"},"step":{"line":31,"prefix":"And","index":1,"text":"request {\"name\": \"Revathy\", \"job\": \" Tester\"}"}},{"result":{"nanos":913008100,"startTime":1703570338377,"endTime":1703570339290,"millis":913.0081,"status":"passed"},"step":{"line":32,"prefix":"When","index":2,"text":"method POST"},"stepLog":"11:28:58.378 request:\n1 > POST https:\/\/reqres.in\/api\/users\n1 > Content-Type: application\/json; charset=UTF-8\n1 > Content-Length: 34\n1 > Host: reqres.in\n1 > Connection: Keep-Alive\n1 > User-Agent: Apache-HttpClient\/4.5.14 (Java\/16.0.1)\n1 > Accept-Encoding: gzip,deflate\n{\"name\":\"Revathy\",\"job\":\" Tester\"}\n\n11:28:59.288 response time in milliseconds: 907\n1 < 201\n1 < Date: Tue, 26 Dec 2023 05:59:31 GMT\n1 < Content-Type: application\/json; charset=utf-8\n1 < Content-Length: 84\n1 < Connection: keep-alive\n1 < Report-To: {\"group\":\"heroku-nel\",\"max_age\":3600,\"endpoints\":[{\"url\":\"https:\/\/nel.heroku.com\/reports?ts=1703570371&sid=c4c9725f-1ab0-44d8-820f-430df2718e11&s=mNZHOKPrceKGK2CnBYWOJ8OWc%2B7duGwfiOMfsgc230k%3D\"}]}\n1 < Reporting-Endpoints: heroku-nel=https:\/\/nel.heroku.com\/reports?ts=1703570371&sid=c4c9725f-1ab0-44d8-820f-430df2718e11&s=mNZHOKPrceKGK2CnBYWOJ8OWc%2B7duGwfiOMfsgc230k%3D\n1 < Nel: {\"report_to\":\"heroku-nel\",\"max_age\":3600,\"success_fraction\":0.005,\"failure_fraction\":0.05,\"response_headers\":[\"Via\"]}\n1 < X-Powered-By: Express\n1 < Access-Control-Allow-Origin: *\n1 < Etag: W\/\"54-GzgFslQm1PctZ02WeRX2GGQifAQ\"\n1 < Via: 1.1 vegur\n1 < CF-Cache-Status: DYNAMIC\n1 < Server: cloudflare\n1 < CF-RAY: 83b719211f8c5fc9-SIN\n{\"name\":\"Revathy\",\"job\":\" Tester\",\"id\":\"519\",\"createdAt\":\"2023-12-26T05:59:31.060Z\"}\n\n"},{"result":{"nanos":17700,"startTime":1703570339290,"endTime":1703570339290,"millis":0.0177,"status":"passed"},"step":{"line":33,"prefix":"Then","index":3,"text":"status 201"}},{"result":{"nanos":1518800,"startTime":1703570339291,"endTime":1703570339293,"millis":1.5188,"status":"passed"},"step":{"line":34,"prefix":"And","index":4,"text":"print \"response is:\", response"},"stepLog":"11:28:59.292 [print] response is: {\n  \"name\": \"Revathy\",\n  \"job\": \" Tester\",\n  \"id\": \"519\",\n  \"createdAt\": \"2023-12-26T05:59:31.060Z\"\n}\n \n"},{"result":{"nanos":22765000,"startTime":1703570339293,"endTime":1703570339316,"millis":22.765,"status":"passed"},"step":{"line":35,"prefix":"And","index":5,"text":"match response == {\"name\":\"Revathy\",\"job\":\" Tester\",\"id\":\"#notnull\",\"createdAt\":\"#ignore\"}"}},{"result":{"nanos":5268600,"startTime":1703570339315,"endTime":1703570339320,"millis":5.2686,"status":"passed"},"step":{"line":36,"prefix":"And","index":6,"text":"assert responseTime < 2000"}}],"executorName":"main","line":29,"name":"POST Request 3","description":"","durationMillis":944.1104,"startTime":1703570338375,"failed":false,"refId":"[4:29]","endTime":1703570339320,"exampleIndex":-1},{"sectionIndex":4,"stepResults":[{"result":{"nanos":257000,"startTime":1703570339327,"endTime":1703570339327,"millis":0.257,"status":"passed"},"step":{"background":true,"line":4,"prefix":"*","index":0,"text":"url \"https:\/\/reqres.in\/api\""}},{"result":{"nanos":1148200,"startTime":1703570339327,"endTime":1703570339328,"millis":1.1482,"status":"passed"},"step":{"background":true,"line":5,"prefix":"*","index":1,"text":"def expectedOutcome = read(\"response.json\")"}},{"result":{"nanos":146500,"startTime":1703570339328,"endTime":1703570339328,"millis":0.1465,"status":"passed"},"step":{"line":40,"prefix":"Given","index":0,"text":"path \"\/users\""}},{"result":{"nanos":253000,"startTime":1703570339329,"endTime":1703570339329,"millis":0.253,"status":"passed"},"step":{"line":41,"prefix":"And","index":1,"text":"request {\"name\": \"Revathy\", \"job\": \" Tester\"}"}},{"result":{"nanos":778721100,"startTime":1703570339329,"endTime":1703570340108,"millis":778.7211,"status":"passed"},"step":{"line":42,"prefix":"When","index":2,"text":"method POST"},"stepLog":"11:28:59.331 request:\n1 > POST https:\/\/reqres.in\/api\/users\n1 > Content-Type: application\/json; charset=UTF-8\n1 > Content-Length: 34\n1 > Host: reqres.in\n1 > Connection: Keep-Alive\n1 > User-Agent: Apache-HttpClient\/4.5.14 (Java\/16.0.1)\n1 > Accept-Encoding: gzip,deflate\n{\"name\":\"Revathy\",\"job\":\" Tester\"}\n\n11:29:00.106 response time in milliseconds: 775\n1 < 201\n1 < Date: Tue, 26 Dec 2023 05:59:31 GMT\n1 < Content-Type: application\/json; charset=utf-8\n1 < Content-Length: 83\n1 < Connection: keep-alive\n1 < Report-To: {\"group\":\"heroku-nel\",\"max_age\":3600,\"endpoints\":[{\"url\":\"https:\/\/nel.heroku.com\/reports?ts=1703570371&sid=c4c9725f-1ab0-44d8-820f-430df2718e11&s=mNZHOKPrceKGK2CnBYWOJ8OWc%2B7duGwfiOMfsgc230k%3D\"}]}\n1 < Reporting-Endpoints: heroku-nel=https:\/\/nel.heroku.com\/reports?ts=1703570371&sid=c4c9725f-1ab0-44d8-820f-430df2718e11&s=mNZHOKPrceKGK2CnBYWOJ8OWc%2B7duGwfiOMfsgc230k%3D\n1 < Nel: {\"report_to\":\"heroku-nel\",\"max_age\":3600,\"success_fraction\":0.005,\"failure_fraction\":0.05,\"response_headers\":[\"Via\"]}\n1 < X-Powered-By: Express\n1 < Access-Control-Allow-Origin: *\n1 < Etag: W\/\"53-zBv69SpGKBPdSPJOhfDs0OIz65s\"\n1 < Via: 1.1 vegur\n1 < CF-Cache-Status: DYNAMIC\n1 < Server: cloudflare\n1 < CF-RAY: 83b719260cf885d6-BOM\n{\"name\":\"Revathy\",\"job\":\" Tester\",\"id\":\"88\",\"createdAt\":\"2023-12-26T05:59:31.863Z\"}\n\n"},{"result":{"nanos":12300,"startTime":1703570340108,"endTime":1703570340108,"millis":0.0123,"status":"passed"},"step":{"line":43,"prefix":"Then","index":3,"text":"status 201"}},{"result":{"nanos":652200,"startTime":1703570340108,"endTime":1703570340109,"millis":0.6522,"status":"passed"},"step":{"line":44,"prefix":"And","index":4,"text":"print \"response is:\", response"},"stepLog":"11:29:00.109 [print] response is: {\n  \"name\": \"Revathy\",\n  \"job\": \" Tester\",\n  \"id\": \"88\",\n  \"createdAt\": \"2023-12-26T05:59:31.863Z\"\n}\n \n"},{"result":{"nanos":895200,"startTime":1703570340109,"endTime":1703570340110,"millis":0.8952,"status":"passed"},"step":{"line":45,"prefix":"And","index":5,"text":"match response == expectedOutcome"}},{"result":{"nanos":526800,"startTime":1703570340110,"endTime":1703570340111,"millis":0.5268,"status":"passed"},"step":{"line":46,"prefix":"And","index":6,"text":"match $ == expectedOutcome"}}],"executorName":"main","line":39,"name":"POST Request 4","description":"","durationMillis":782.6123,"startTime":1703570339326,"failed":false,"refId":"[5:39]","endTime":1703570340111,"exampleIndex":-1},{"sectionIndex":5,"stepResults":[{"result":{"nanos":187700,"startTime":1703570340117,"endTime":1703570340117,"millis":0.1877,"status":"passed"},"step":{"background":true,"line":4,"prefix":"*","index":0,"text":"url \"https:\/\/reqres.in\/api\""}},{"result":{"nanos":839700,"startTime":1703570340117,"endTime":1703570340118,"millis":0.8397,"status":"passed"},"step":{"background":true,"line":5,"prefix":"*","index":1,"text":"def expectedOutcome = read(\"response.json\")"}},{"result":{"nanos":112100,"startTime":1703570340118,"endTime":1703570340118,"millis":0.1121,"status":"passed"},"step":{"line":50,"prefix":"Given","index":0,"text":"path \"\/users\""}},{"result":{"nanos":1230500,"startTime":1703570340119,"endTime":1703570340120,"millis":1.2305,"status":"passed"},"step":{"line":51,"prefix":"And","index":1,"text":"def requestBody = read(\"request.json\")"}},{"result":{"nanos":2282500,"startTime":1703570340120,"endTime":1703570340122,"millis":2.2825,"status":"passed"},"step":{"line":52,"prefix":"And","index":2,"text":"request requestBody"}},{"result":{"nanos":802554800,"startTime":1703570340122,"endTime":1703570340925,"millis":802.5548,"status":"passed"},"step":{"line":53,"prefix":"When","index":3,"text":"method POST"},"stepLog":"11:29:00.124 request:\n1 > POST https:\/\/reqres.in\/api\/users\n1 > Content-Type: application\/json; charset=UTF-8\n1 > Content-Length: 42\n1 > Host: reqres.in\n1 > Connection: Keep-Alive\n1 > User-Agent: Apache-HttpClient\/4.5.14 (Java\/16.0.1)\n1 > Accept-Encoding: gzip,deflate\n{\"name\":\"REVATHY\",\"job\":\"SOFTWARE TESTER\"}\n\n11:29:00.924 response time in milliseconds: 799\n1 < 201\n1 < Date: Tue, 26 Dec 2023 05:59:32 GMT\n1 < Content-Type: application\/json; charset=utf-8\n1 < Content-Length: 92\n1 < Connection: keep-alive\n1 < Report-To: {\"group\":\"heroku-nel\",\"max_age\":3600,\"endpoints\":[{\"url\":\"https:\/\/nel.heroku.com\/reports?ts=1703570372&sid=c4c9725f-1ab0-44d8-820f-430df2718e11&s=wzkbAVdhlOuJVaQDN9N4bmofNYr3olvUnRGWrTkle7w%3D\"}]}\n1 < Reporting-Endpoints: heroku-nel=https:\/\/nel.heroku.com\/reports?ts=1703570372&sid=c4c9725f-1ab0-44d8-820f-430df2718e11&s=wzkbAVdhlOuJVaQDN9N4bmofNYr3olvUnRGWrTkle7w%3D\n1 < Nel: {\"report_to\":\"heroku-nel\",\"max_age\":3600,\"success_fraction\":0.005,\"failure_fraction\":0.05,\"response_headers\":[\"Via\"]}\n1 < X-Powered-By: Express\n1 < Access-Control-Allow-Origin: *\n1 < Etag: W\/\"5c-FKdTMd7nXEnsbsnSoQCMiIXAcpQ\"\n1 < Via: 1.1 vegur\n1 < CF-Cache-Status: DYNAMIC\n1 < Server: cloudflare\n1 < CF-RAY: 83b7192bfb1518ec-SIN\n{\"name\":\"REVATHY\",\"job\":\"SOFTWARE TESTER\",\"id\":\"425\",\"createdAt\":\"2023-12-26T05:59:32.738Z\"}\n\n"},{"result":{"nanos":7700,"startTime":1703570340925,"endTime":1703570340925,"millis":0.0077,"status":"passed"},"step":{"line":54,"prefix":"Then","index":4,"text":"status 201"}},{"result":{"nanos":921100,"startTime":1703570340925,"endTime":1703570340926,"millis":0.9211,"status":"passed"},"step":{"line":55,"prefix":"And","index":5,"text":"print \"response is:\", response"},"stepLog":"11:29:00.927 [print] response is: {\n  \"name\": \"REVATHY\",\n  \"job\": \"SOFTWARE TESTER\",\n  \"id\": \"425\",\n  \"createdAt\": \"2023-12-26T05:59:32.738Z\"\n}\n \n"},{"result":{"nanos":1021600,"startTime":1703570340927,"endTime":1703570340928,"millis":1.0216,"status":"passed"},"step":{"line":56,"prefix":"And","index":6,"text":"match response == {\"name\": \"REVATHY\",\"job\": \"SOFTWARE TESTER\", \"id\":\"#notnull\",\"createdAt\":\"#ignore\"}"}}],"executorName":"main","line":49,"name":"POST Request 5","description":"","durationMillis":809.1577,"startTime":1703570340117,"failed":false,"refId":"[6:49]","endTime":1703570340928,"exampleIndex":-1},{"sectionIndex":6,"stepResults":[{"result":{"nanos":185500,"startTime":1703570340934,"endTime":1703570340934,"millis":0.1855,"status":"passed"},"step":{"background":true,"line":4,"prefix":"*","index":0,"text":"url \"https:\/\/reqres.in\/api\""}},{"result":{"nanos":931900,"startTime":1703570340934,"endTime":1703570340935,"millis":0.9319,"status":"passed"},"step":{"background":true,"line":5,"prefix":"*","index":1,"text":"def expectedOutcome = read(\"response.json\")"}}],"executorName":"main","line":59,"name":"Post Request 6","description":"","durationMillis":1.1174,"startTime":1703570340934,"failed":false,"refId":"[7:59]","endTime":1703570340935,"exampleIndex":-1},{"sectionIndex":7,"stepResults":[{"result":{"nanos":203500,"startTime":1703570340944,"endTime":1703570340944,"millis":0.2035,"status":"passed"},"step":{"background":true,"line":4,"prefix":"*","index":0,"text":"url \"https:\/\/reqres.in\/api\""}},{"result":{"nanos":910700,"startTime":1703570340945,"endTime":1703570340946,"millis":0.9107,"status":"passed"},"step":{"background":true,"line":5,"prefix":"*","index":1,"text":"def expectedOutcome = read(\"response.json\")"}},{"result":{"nanos":110700,"startTime":1703570340946,"endTime":1703570340946,"millis":0.1107,"status":"passed"},"step":{"line":62,"prefix":"Given","index":0,"text":"path \"\/users\""}},{"result":{"nanos":658000,"startTime":1703570340946,"endTime":1703570340947,"millis":0.658,"status":"passed"},"step":{"line":63,"prefix":"And","index":1,"text":"def requestBody = read(\"request.json\")"}},{"result":{"nanos":2591300,"startTime":1703570340947,"endTime":1703570340950,"millis":2.5913,"status":"passed"},"step":{"line":64,"prefix":"And","index":2,"text":"set requestBody.job = \"Test Analyst\""}},{"result":{"nanos":215100,"startTime":1703570340949,"endTime":1703570340949,"millis":0.2151,"status":"passed"},"step":{"line":65,"prefix":"And","index":3,"text":"request requestBody"}},{"result":{"nanos":799510400,"startTime":1703570340949,"endTime":1703570341749,"millis":799.5104,"status":"passed"},"step":{"line":66,"prefix":"When","index":4,"text":"method POST"},"stepLog":"11:29:00.951 request:\n1 > POST https:\/\/reqres.in\/api\/users\n1 > Content-Type: application\/json; charset=UTF-8\n1 > Content-Length: 39\n1 > Host: reqres.in\n1 > Connection: Keep-Alive\n1 > User-Agent: Apache-HttpClient\/4.5.14 (Java\/16.0.1)\n1 > Accept-Encoding: gzip,deflate\n{\"name\":\"REVATHY\",\"job\":\"Test Analyst\"}\n\n11:29:01.747 response time in milliseconds: 795\n1 < 201\n1 < Date: Tue, 26 Dec 2023 05:59:33 GMT\n1 < Content-Type: application\/json; charset=utf-8\n1 < Content-Length: 89\n1 < Connection: keep-alive\n1 < Report-To: {\"group\":\"heroku-nel\",\"max_age\":3600,\"endpoints\":[{\"url\":\"https:\/\/nel.heroku.com\/reports?ts=1703570373&sid=c4c9725f-1ab0-44d8-820f-430df2718e11&s=OzmGKYewoSfYN1b45OpE534XoOT%2BmvOaQRRN36BTsfo%3D\"}]}\n1 < Reporting-Endpoints: heroku-nel=https:\/\/nel.heroku.com\/reports?ts=1703570373&sid=c4c9725f-1ab0-44d8-820f-430df2718e11&s=OzmGKYewoSfYN1b45OpE534XoOT%2BmvOaQRRN36BTsfo%3D\n1 < Nel: {\"report_to\":\"heroku-nel\",\"max_age\":3600,\"success_fraction\":0.005,\"failure_fraction\":0.05,\"response_headers\":[\"Via\"]}\n1 < X-Powered-By: Express\n1 < Access-Control-Allow-Origin: *\n1 < Etag: W\/\"59-FsoR8LwDilA0n3SESQkoiAtUkKk\"\n1 < Via: 1.1 vegur\n1 < CF-Cache-Status: DYNAMIC\n1 < Server: cloudflare\n1 < CF-RAY: 83b719311a5aab59-SIN\n{\"name\":\"REVATHY\",\"job\":\"Test Analyst\",\"id\":\"979\",\"createdAt\":\"2023-12-26T05:59:33.574Z\"}\n\n"},{"result":{"nanos":18900,"startTime":1703570341749,"endTime":1703570341749,"millis":0.0189,"status":"passed"},"step":{"line":67,"prefix":"Then","index":5,"text":"status 201"}},{"result":{"nanos":1114900,"startTime":1703570341750,"endTime":1703570341751,"millis":1.1149,"status":"passed"},"step":{"line":68,"prefix":"And","index":6,"text":"print \"response is:\", response"},"stepLog":"11:29:01.751 [print] response is: {\n  \"name\": \"REVATHY\",\n  \"job\": \"Test Analyst\",\n  \"id\": \"979\",\n  \"createdAt\": \"2023-12-26T05:59:33.574Z\"\n}\n \n"},{"result":{"nanos":1183200,"startTime":1703570341751,"endTime":1703570341752,"millis":1.1832,"status":"passed"},"step":{"line":69,"prefix":"And","index":7,"text":"match response == {\"name\": \"REVATHY\",\"job\": \"Test Analyst\", \"id\":\"#notnull\",\"createdAt\":\"#ignore\"}"}}],"executorName":"main","line":61,"name":"POST Request 5","description":"","durationMillis":806.5167,"startTime":1703570340944,"failed":false,"refId":"[8:61]","endTime":1703570341752,"exampleIndex":-1}],"callDepth":0,"name":"New API Testing","description":"","resultDate":"2023-12-26 11:29:01 AM","durationMillis":5742.3482,"passedCount":8}