{"failedCount":0,"prefixedPath":"src\/test\/java\/com\/tests\/queryAndpath.feature","packageQualifiedName":"src.test.java.com.tests.queryAndpath","loopIndex":-1,"relativePath":"src\/test\/java\/com\/tests\/queryAndpath.feature","scenarioResults":[{"sectionIndex":0,"stepResults":[{"result":{"nanos":1666500,"startTime":1703831261969,"endTime":1703831261971,"millis":1.6665,"status":"passed"},"step":{"line":4,"prefix":"Given","index":0,"text":"url \"https:\/\/reqres.in\/api\/users\""}},{"result":{"nanos":2068000,"startTime":1703831261974,"endTime":1703831261976,"millis":2.068,"status":"passed"},"step":{"line":5,"prefix":"And","index":1,"text":"param page = '2'"}},{"result":{"nanos":932820100,"startTime":1703831261976,"endTime":1703831262909,"millis":932.8201,"status":"passed"},"step":{"line":6,"prefix":"When","index":2,"text":"method GET"},"stepLog":"11:57:42.255 request:\n1 > GET https:\/\/reqres.in\/api\/users?page=2\n1 > Host: reqres.in\n1 > Connection: Keep-Alive\n1 > User-Agent: Apache-HttpClient\/4.5.14 (Java\/16.0.1)\n1 > Accept-Encoding: gzip,deflate\n\n\n11:57:42.874 response time in milliseconds: 611\n1 < 200\n1 < Date: Fri, 29 Dec 2023 06:28:16 GMT\n1 < Content-Type: application\/json; charset=utf-8\n1 < Transfer-Encoding: chunked\n1 < Connection: keep-alive\n1 < Report-To: {\"group\":\"heroku-nel\",\"max_age\":3600,\"endpoints\":[{\"url\":\"https:\/\/nel.heroku.com\/reports?ts=1703420867&sid=c4c9725f-1ab0-44d8-820f-430df2718e11&s=XXtQfpa6a0sa4MzA55Ns2sR8sC9DSKywOvYdQmcLWRo%3D\"}]}\n1 < Reporting-Endpoints: heroku-nel=https:\/\/nel.heroku.com\/reports?ts=1703420867&sid=c4c9725f-1ab0-44d8-820f-430df2718e11&s=XXtQfpa6a0sa4MzA55Ns2sR8sC9DSKywOvYdQmcLWRo%3D\n1 < Nel: {\"report_to\":\"heroku-nel\",\"max_age\":3600,\"success_fraction\":0.005,\"failure_fraction\":0.05,\"response_headers\":[\"Via\"]}\n1 < X-Powered-By: Express\n1 < Access-Control-Allow-Origin: *\n1 < Etag: W\/\"406-ut0vzoCuidvyMf8arZpMpJ6ZRDw\"\n1 < Via: 1.1 vegur\n1 < Cache-Control: max-age=14400\n1 < CF-Cache-Status: HIT\n1 < Age: 777\n1 < Vary: Accept-Encoding\n1 < Server: cloudflare\n1 < CF-RAY: 83cffb643da75f93-SIN\n{\"page\":2,\"per_page\":6,\"total\":12,\"total_pages\":2,\"data\":[{\"id\":7,\"email\":\"michael.lawson@reqres.in\",\"first_name\":\"Michael\",\"last_name\":\"Lawson\",\"avatar\":\"https:\/\/reqres.in\/img\/faces\/7-image.jpg\"},{\"id\":8,\"email\":\"lindsay.ferguson@reqres.in\",\"first_name\":\"Lindsay\",\"last_name\":\"Ferguson\",\"avatar\":\"https:\/\/reqres.in\/img\/faces\/8-image.jpg\"},{\"id\":9,\"email\":\"tobias.funke@reqres.in\",\"first_name\":\"Tobias\",\"last_name\":\"Funke\",\"avatar\":\"https:\/\/reqres.in\/img\/faces\/9-image.jpg\"},{\"id\":10,\"email\":\"byron.fields@reqres.in\",\"first_name\":\"Byron\",\"last_name\":\"Fields\",\"avatar\":\"https:\/\/reqres.in\/img\/faces\/10-image.jpg\"},{\"id\":11,\"email\":\"george.edwards@reqres.in\",\"first_name\":\"George\",\"last_name\":\"Edwards\",\"avatar\":\"https:\/\/reqres.in\/img\/faces\/11-image.jpg\"},{\"id\":12,\"email\":\"rachel.howell@reqres.in\",\"first_name\":\"Rachel\",\"last_name\":\"Howell\",\"avatar\":\"https:\/\/reqres.in\/img\/faces\/12-image.jpg\"}],\"support\":{\"url\":\"https:\/\/reqres.in\/#support-heading\",\"text\":\"To keep ReqRes free, contributions towards server costs are appreciated!\"}}\n\n"},{"result":{"nanos":16000,"startTime":1703831262909,"endTime":1703831262909,"millis":0.016,"status":"passed"},"step":{"line":7,"prefix":"Then","index":3,"text":"status 200"}},{"result":{"nanos":220000,"startTime":1703831262909,"endTime":1703831262909,"millis":0.22,"status":"passed"},"step":{"line":8,"prefix":"Given","index":4,"text":"url \"https:\/\/reqres.in\/api\/users\""}},{"result":{"nanos":74000,"startTime":1703831262910,"endTime":1703831262910,"millis":0.074,"status":"passed"},"step":{"line":9,"prefix":"And","index":5,"text":"path '2'"}},{"result":{"nanos":364602400,"startTime":1703831262910,"endTime":1703831263275,"millis":364.6024,"status":"passed"},"step":{"line":10,"prefix":"When","index":6,"text":"method get"},"stepLog":"11:57:42.911 request:\n2 > GET https:\/\/reqres.in\/api\/users\/2\n2 > Host: reqres.in\n2 > Connection: Keep-Alive\n2 > User-Agent: Apache-HttpClient\/4.5.14 (Java\/16.0.1)\n2 > Accept-Encoding: gzip,deflate\n\n\n11:57:43.271 response time in milliseconds: 358\n2 < 200\n2 < Date: Fri, 29 Dec 2023 06:28:17 GMT\n2 < Content-Type: application\/json; charset=utf-8\n2 < Transfer-Encoding: chunked\n2 < Connection: keep-alive\n2 < Report-To: {\"group\":\"heroku-nel\",\"max_age\":3600,\"endpoints\":[{\"url\":\"https:\/\/nel.heroku.com\/reports?ts=1703771491&sid=c4c9725f-1ab0-44d8-820f-430df2718e11&s=eEWd6UcrIRzqtN1xZzUnh8qd%2BONnoI%2BV22ySk%2BCXeMM%3D\"}]}\n2 < Reporting-Endpoints: heroku-nel=https:\/\/nel.heroku.com\/reports?ts=1703771491&sid=c4c9725f-1ab0-44d8-820f-430df2718e11&s=eEWd6UcrIRzqtN1xZzUnh8qd%2BONnoI%2BV22ySk%2BCXeMM%3D\n2 < Nel: {\"report_to\":\"heroku-nel\",\"max_age\":3600,\"success_fraction\":0.005,\"failure_fraction\":0.05,\"response_headers\":[\"Via\"]}\n2 < X-Powered-By: Express\n2 < Access-Control-Allow-Origin: *\n2 < Etag: W\/\"118-pbdwwFo9SKNhD3Lx5iHJyngpq00\"\n2 < Via: 1.1 vegur\n2 < Cache-Control: max-age=14400\n2 < CF-Cache-Status: HIT\n2 < Age: 676\n2 < Vary: Accept-Encoding\n2 < Server: cloudflare\n2 < CF-RAY: 83cffb66edad494f-SIN\n{\"data\":{\"id\":2,\"email\":\"janet.weaver@reqres.in\",\"first_name\":\"Janet\",\"last_name\":\"Weaver\",\"avatar\":\"https:\/\/reqres.in\/img\/faces\/2-image.jpg\"},\"support\":{\"url\":\"https:\/\/reqres.in\/#support-heading\",\"text\":\"To keep ReqRes free, contributions towards server costs are appreciated!\"}}\n\n"},{"result":{"nanos":13900,"startTime":1703831263274,"endTime":1703831263274,"millis":0.0139,"status":"passed"},"step":{"line":11,"prefix":"Then","index":7,"text":"status 200"}},{"result":{"nanos":7681600,"startTime":1703831263274,"endTime":1703831263282,"millis":7.6816,"status":"passed"},"step":{"line":12,"prefix":"And","index":8,"text":"print \"response is:\", response"},"stepLog":"11:57:43.282 [print] response is: {\n  \"data\": {\n    \"id\": 2,\n    \"email\": \"janet.weaver@reqres.in\",\n    \"first_name\": \"Janet\",\n    \"last_name\": \"Weaver\",\n    \"avatar\": \"https:\/\/reqres.in\/img\/faces\/2-image.jpg\"\n  },\n  \"support\": {\n    \"url\": \"https:\/\/reqres.in\/#support-heading\",\n    \"text\": \"To keep ReqRes free, contributions towards server costs are appreciated!\"\n  }\n}\n \n"}],"executorName":"main","line":3,"name":"Query parameter","description":"","durationMillis":1309.1625,"startTime":1703831261751,"failed":false,"refId":"[1:3]","endTime":1703831263282,"exampleIndex":-1}],"callDepth":0,"name":"Query & Path Parameter","description":"","resultDate":"2023-12-29 11:57:43 AM","durationMillis":1309.1625,"passedCount":1}